<?xml version="1.0" encoding="utf-8"?>
<!-- Generator: Adobe Illustrator 25.0.0, SVG Export Plug-In . SVG Version: 6.00 Build 0)  -->
<svg version="1.1" id="Capa_1" xmlns="http://www.w3.org/2000/svg" xmlns:xlink="http://www.w3.org/1999/xlink" x="0px" y="0px"
	 viewBox="0 0 329.8 134.9" style="enable-background:new 0 0 329.8 134.9;" xml:space="preserve">
<style type="text/css">
	.st0{clip-path:url(#SVGID_2_);fill:#712E82;}
	.st1{clip-path:url(#SVGID_4_);fill:#712E82;}
	.st2{fill:none;stroke:#432771;stroke-width:2;}
	.st3{fill:none;stroke:#432771;}
	.st4{clip-path:url(#SVGID_6_);fill:#333233;}
	.st5{clip-path:url(#SVGID_8_);fill:none;stroke:#712E82;stroke-width:2;}
	.st6{fill:none;stroke:#712E82;}
</style>
<g>
	<g>
		<defs>
			<rect id="SVGID_1_" width="329.8" height="134.8"/>
		</defs>
		<clipPath id="SVGID_2_">
			<use xlink:href="#SVGID_1_"  style="overflow:visible;"/>
		</clipPath>
		<path class="st0" d="M139.3,35.6v-1.3H120v1.3h5v25c0,2.3,0.3,4.4,0.8,6.3s1.9,3.6,4.2,5.2s5.8,2.3,10.5,2.3
			c5.9,0,9.6-1.5,11.3-4.3c1.7-2.9,2.5-5.7,2.5-8.5V41.8c0-1.5,0.3-2.9,1-4.2c0.6-1.3,1.9-2,3.7-2v-1.3h-11.4v1.3
			c2,0.1,3.4,0.8,4.1,2.1s1.1,3.2,1.1,5.8v17.4c0,2.6-0.6,5.1-1.9,7.5c-1.2,2.5-4,3.7-8.4,3.7c-3.3,0-5.5-0.7-6.7-2.2
			c-1.1-1.5-1.7-3-1.7-4.7V35.6L139.3,35.6L139.3,35.6z M86.6,40.6c0.6-1.9,1.6-3.3,2.9-4.3c1.3-1,3-1.5,5.1-1.5
			c3.2,0,5.5,1.1,6.9,3.2c1.4,2.2,2.2,5.3,2.4,9.5c0.1,1,0.1,2.8,0.1,5.5c-0.1,3.3-0.1,5.8-0.1,7.4c-0.1,2.3-0.3,4.3-0.7,6.1
			c-0.4,1.8-1.3,3.3-2.6,4.6c-1.4,1.3-3.3,2-5.9,2c-3.7,0-6.1-1.2-7.2-3.7c-1.1-2.5-1.8-5.5-1.9-9c0-1.2-0.1-3.6-0.1-7.4
			c0-2.7,0-4.5,0.1-5.5C85.5,44.8,85.9,42.5,86.6,40.6 M76.6,62.8c1.2,2.6,2.9,4.7,4.9,6.5s4.2,3,6.5,3.9s4.5,1.3,6.6,1.3
			c3.2,0,6.3-0.8,9.4-2.5s5.6-4,7.6-7.2c2-3.1,2.9-6.7,2.9-10.8c0-3.7-0.9-7.2-2.8-10.3c-1.8-3.1-4.3-5.6-7.3-7.5
			c-3.1-1.8-6.3-2.7-9.8-2.7c-2.6,0-5,0.5-7.4,1.5c-2.4,1-4.5,2.5-6.4,4.4s-3.3,4.1-4.4,6.6c-1.1,2.5-1.6,5.2-1.6,8
			C74.8,57.3,75.4,60.2,76.6,62.8 M36.8,72.3v1.3h33.4l0.7-13h-1.7c-0.3,2.2-1.1,4.1-2.5,5.9c-1.3,1.8-3,3.2-5,4.2
			c-2,1-4.1,1.5-6.3,1.5h-4.4V35.6h5v-1.3H36.8v1.3h5v36.7H36.8z"/>
	</g>
	<g>
		<defs>
			<rect id="SVGID_3_" width="329.8" height="134.8"/>
		</defs>
		<clipPath id="SVGID_4_">
			<use xlink:href="#SVGID_3_"  style="overflow:visible;"/>
		</clipPath>
		<path class="st1" d="M289,50v4.5c-0.9-1.8-2.1-3.1-3.5-4c-1.5-0.9-3.2-1.3-5.2-1.3c-3.4,0-6.1,1.1-8.1,3.5c-2,2.3-3,5.4-3,9.3
			c0,3.9,1,6.9,3.1,9.3s4.8,3.5,8.2,3.5c1.8,0,3.5-0.5,5-1.4c1.5-0.9,2.7-2.2,3.6-4v4.3h3.9V50.1L289,50L289,50z M287,68.4
			c-1.4,1.5-3.3,2.3-5.7,2.3c-2.5,0-4.5-0.8-5.8-2.3s-2.1-3.8-2.1-6.6c0-2.7,0.7-4.8,2-6.3c1.4-1.5,3.3-2.2,5.7-2.2
			c2.4,0,4.2,0.8,5.7,2.5s2.2,3.8,2.2,6.5C289.1,64.8,288.4,66.9,287,68.4 M258.6,33.6v20.9c-0.9-1.8-2.1-3.1-3.5-4
			c-1.5-0.9-3.2-1.3-5.1-1.3c-3.4,0-6.1,1.2-8.1,3.5s-3,5.4-3,9.3c0,3.9,1,6.9,3.1,9.3s4.8,3.5,8.2,3.5c1.8,0,3.5-0.5,5-1.4
			c1.5-0.9,2.7-2.2,3.6-3.9v4.3h3.9V33.6L258.6,33.6L258.6,33.6z M256.6,68.5c-1.4,1.5-3.4,2.3-5.8,2.3c-2.4,0-4.3-0.8-5.6-2.5
			c-1.4-1.6-2-3.9-2-6.9c0-2.6,0.7-4.6,2-6.1c1.4-1.5,3.2-2.2,5.6-2.2c2.4,0,4.3,0.8,5.8,2.4c1.5,1.6,2.2,3.7,2.2,6.4
			C258.8,64.8,258.1,66.9,256.6,68.5 M209.5,66.8c0.6,1.5,1.6,2.9,2.8,4.1c1.2,1.2,2.6,2.1,4.2,2.8c1.6,0.6,3.2,1,5,1
			c1.7,0,3.3-0.3,4.9-1c1.6-0.7,3-1.6,4.2-2.9c1.2-1.2,2.2-2.5,2.8-4.1c0.6-1.5,1-3.1,1-4.9s-0.3-3.4-1-4.9
			c-0.6-1.5-1.6-2.9-2.8-4.1c-1.3-1.2-2.7-2.2-4.2-2.8c-1.5-0.6-3.2-1-4.9-1c-1.8,0-3.4,0.3-5,0.9c-1.5,0.6-2.9,1.5-4.2,2.8
			c-1.2,1.2-2.2,2.6-2.8,4.1s-1,3.2-1,4.9C208.6,63.7,208.9,65.3,209.5,66.8 M215.4,55.6c1.7-1.7,3.7-2.6,6.1-2.6
			c2.4,0,4.4,0.9,6,2.6s2.5,3.9,2.5,6.4s-0.8,4.6-2.5,6.4s-3.7,2.6-6,2.6c-2.4,0-4.4-0.9-6.1-2.6c-1.7-1.7-2.5-3.9-2.5-6.4
			S213.7,57.3,215.4,55.6 M202.5,73.7V57.6c0-2.6-0.7-4.7-2.2-6.2c-1.5-1.5-3.5-2.2-6.2-2.2c-1.8,0-3.4,0.4-4.8,1.2s-2.6,2-3.6,3.6
			c-0.7-1.6-1.7-2.8-3.1-3.6c-1.4-0.8-3-1.2-4.9-1.2c-1.8,0-3.4,0.4-4.7,1.1s-2.5,1.9-3.5,3.4V50h-4v23.7h3.9V61.5
			c0-2,0.1-3.4,0.3-4.2c0.2-0.8,0.5-1.5,1-2.1c0.6-0.8,1.4-1.4,2.4-1.9s1.9-0.7,3-0.7c2,0,3.5,0.6,4.4,1.8s1.4,3,1.4,5.3v14h3.9
			V61.5c0-1.9,0.1-3.3,0.3-4.1c0.2-0.8,0.5-1.5,1-2.2c0.6-0.8,1.4-1.4,2.3-1.9s1.9-0.7,3-0.7c2,0,3.5,0.6,4.4,1.8
			c1,1.2,1.4,3,1.4,5.3v14L202.5,73.7L202.5,73.7z"/>
	</g>
</g>
<path class="st2" d="M71,113.4"/>
<path class="st3" d="M73.8,107.2"/>
<g>
	<g>
		<defs>
			<rect id="SVGID_5_" width="329.8" height="134.8"/>
		</defs>
		<clipPath id="SVGID_6_">
			<use xlink:href="#SVGID_5_"  style="overflow:visible;"/>
		</clipPath>
		<path class="st4" d="M231.3,112.1c1-1.3,2.5-2.6,3.6-3C234.6,110.2,232.6,111.4,231.3,112.1 M230,114.7c0,0,5.2-1.9,6.3-4
			c0.2-0.3,0.2-0.6,0.2-0.9c0-1.2-1.2-2.2-2.4-2.2c0,0-0.1,0-0.1,0c-2.6,0.1-6,4.3-6,7.4c0,1.6,0.9,2.9,3.3,3.2c0.2,0,0.4,0,0.6,0
			c4.5,0,11.1-5.8,11.1-5.8c0.1-0.1,0.1-0.1,0.1-0.2c0-0.5-0.8-1.3-1.2-1.3c-0.1,0-0.1,0-0.2,0.1c-2.1,1.8-7.5,5.9-10.7,5.9
			c-0.3,0-0.7,0-1-0.1c-0.4-0.1-0.5-0.5-0.5-1C229.6,115.2,229.8,114.8,230,114.7 M229.7,110.9c-3.4,3.2-7.8,9.4-10.7,11.4
			c0.1-4.3,5.5-17.4,8.4-24.5c0.9-2.1,1.8-3.8,1.8-4.5c0-0.5-0.9-1.2-1.4-1.2c-0.1,0-0.2,0-0.3,0.2c-0.2,0.7-0.9,2.2-1.8,4.3
			c-3,7.2-8.5,20.5-8.5,24.8c0,1.6,0.6,2.6,2,2.6c0,0,0.1,0,0.2,0c1.6-0.1,8.9-9.7,11.6-11.7c0.1-0.1,0.1-0.1,0.1-0.2
			c0-0.5-0.8-1.2-1.3-1.2C229.8,110.8,229.7,110.8,229.7,110.9 M203.7,132.4c-0.9,1-1.7,1.4-2.2,0.9c-3.3-3.6,5-10.4,7.9-12.7
			C207.7,125.4,205.7,130.3,203.7,132.4 M207.2,107.6c-1.8,2.6-2.6,4.4-2.8,5.6c-0.1,0.6,0,1.1,0.2,1.5c0.5,1.1,1.7,1.8,2.9,1.5
			c0.9-0.3,2.1-1,3.5-2.3c0,0,0,0,0,0c0.1,0,0.3-0.2,0.6-0.6c-0.4,1.4-0.7,2.7-1.1,4c-3.6,2.6-15.3,11.2-9.9,16.4
			c5.7,5.4,10.5-12,11.5-15.2c3.6-2.6,7.2-4.8,8.9-5.8c2-1.2-0.5-1.9-0.8-1.8c-2.4,1.5-4.8,3-7.2,4.6c0.7-2.3,1.3-5,2.1-7.1
			c0.2-0.5-0.7-1.2-1.3-1.3c-0.2,0-0.4,0-0.4,0.1c-0.6,1.8-2.6,4.1-4,5.4c-0.8,0.8-2.2,1.9-3.3,2.2c-0.1-1.8,1.8-4.6,2.8-6
			C209.2,108.3,207.6,107.1,207.2,107.6 M205.1,91.5c0,0-1.4,4-3.2,9.4c-7.7,0.9-14.3,2.4-14.4,2.4c-0.3,0.1-0.3,0.4,0.1,0.8
			c0.4,0.4,0.9,0.7,1.2,0.6c0,0,5.7-1.2,12.6-2.2c-3.1,9.5-7.6,22.3-7.3,25.8c0,0.3,0.4,0.8,0.9,1s0.8,0.2,0.8-0.1
			c-0.3-3.6,4.6-17.4,7.8-27c7.3-0.9,15.3-1.2,19.4,0.7c0.5,0.2,0.8,0.1,0.7-0.2s-0.5-0.8-1-1c-4.1-1.9-11.6-1.8-18.6-1
			c1.6-4.7,2.7-8,2.7-8c0.1-0.2-0.2-0.7-0.7-1C205.6,91.3,205.2,91.3,205.1,91.5 M202,96.9c0,0,2.3-2.1,2.3-3.9c0-0.5-0.2-1-0.6-1.3
			c-0.8-0.8-1.9-1-3.1-1s-2.4,0.2-3.4,0.4c-4.5,0.9-9.2,3-12.9,5.3c-2.3,1.5-6.8,4.8-6.8,8.1c0,0.6,0.2,1.3,0.6,1.9
			c3.4,5.2,14,4.4,14,9.5c0,4.1-7.3,8.1-12,8.1c-0.4,0-0.8,0-1.1-0.1c-0.8-0.1-1.4-0.4-1.6-1c-0.3-0.5-0.9-0.9-1.3-0.9
			c-0.2,0-0.3,0.1-0.3,0.2c0,0.1,0,0.2,0.1,0.3c0.8,1.6,2.2,2.5,4,2.8c0.4,0.1,0.9,0.1,1.4,0.1c5.1,0,12.6-4.2,12.6-8.7
			c0-7.4-13.7-6.7-14.5-10.9c0-0.2-0.1-0.4-0.1-0.5c0-2.9,4.6-6.3,6.6-7.6c3.6-2.3,8.3-4.3,12.7-5.2c1.5-0.3,2.6-0.5,3.4-0.5
			c0.7,0,1,0.1,1,0.5c0,0.5-0.8,1.5-2.5,3.1c-0.1,0-0.1,0.1-0.1,0.2c0,0.5,0.9,1.2,1.4,1.2C201.9,97,201.9,97,202,96.9 M150.4,132
			c-1.8,1.9-2.7,1.3-2.6,1.2c-4.6-4,6.6-12.1,9.5-14.1C155.4,124.2,152.8,129.5,150.4,132 M158.5,109.2c-0.1,0.2-5.2,5.8-5.3,5
			C152.5,111.6,155.8,109.1,158.5,109.2 M158.3,107.9c-3.4-0.6-7.7,2.1-6.9,5.6c0.4,1.6,1.4,2.6,3.3,2c1.2-0.4,3-1.8,5.3-4.9
			c-0.4,1.5-0.9,3.4-1.6,5.4c-4.4,2.9-18.2,11.8-11.3,17.8c1.7,1.5,3.4,1.1,4.9-0.5c3.3-3.5,6.4-11.3,8-16c2.7-1.7,5.1-3.2,6.7-4.1
			c0.6-0.3,1-0.6,1.4-0.9c0.2-0.1,0.1-0.6-0.3-0.9c-0.4-0.4-0.9-0.6-1.1-0.4c-0.2,0.1-0.8,0.5-1.4,0.8c-1.1,0.6-2.6,1.6-4.4,2.6
			c0.9-3.3,1.3-5.9,0.9-6.5c-0.3-0.5-1.4-1.5-1.9-0.7c-0.3,0.4-0.5,0.8-0.8,1.1C158.9,108.1,158.6,107.9,158.3,107.9 M136.8,107.7
			c-0.6,1.2-4.6,8.8-4.6,9.4c0,0.8,0.5,1.3,1.4,1.3c1.1,0,7.7-7.8,10.2-8.5c0,0.1,0,0.2,0,0.3c0,0.9-0.2,2-0.2,3.1
			c0,1.1,0.2,2.1,1.1,2.8c0.4,0.3,0.9,0.5,1.5,0.5c2.4,0,5.5-2.8,6.9-4c0.1-0.1,0.1-0.2,0.1-0.3c0-0.5-0.7-1.4-1.1-1.4
			c-0.1,0-0.1,0-0.2,0.1c-0.4,0.4-5.8,4.4-6.6,4.4c0,0-0.1,0-0.1,0c0,0,0-0.1,0-0.2c0-0.5,0.3-1.9,0.3-3.3c0-1-0.1-1.9-0.6-2.4
			c-0.5-0.5-1.1-0.9-1.9-0.9c-0.2,0-0.4,0-0.6,0.1c-1.4,0.4-4.2,3-6.5,5.2c1.2-2.4,2.4-4.8,2.4-4.8c0,0,0-0.1,0-0.1
			c0-0.5-0.9-1.2-1.4-1.2C137,107.6,136.9,107.6,136.8,107.7 M131.1,106.6l2-3.1c0,0,0-0.1,0-0.2c0-0.5-0.9-1.2-1.4-1.2
			c-0.1,0-0.2,0-0.3,0.1l-2,3.1c0,0,0,0.1,0,0.2c0,0.5,0.9,1.2,1.4,1.2C131,106.8,131.1,106.7,131.1,106.6 M128.5,107.7
			c-0.7,1.6-2.3,4.9-2.3,7.3c0,0.6,0.1,1.2,0.4,1.7c0.4,0.6,1.1,1.1,1.8,1.3c0.2,0.1,0.4,0.1,0.6,0.1c2.7,0,6.2-4,7.6-5.7
			c0.1-0.1,0.1-0.1,0.1-0.2c0-0.5-0.7-1.4-1.1-1.4c-0.1,0-0.1,0-0.2,0.1c-1.3,1.6-5.2,5.8-7.5,5.8c0,0,0,0-0.1,0
			c-0.1-0.2-0.1-0.4-0.1-0.7c0-2,1.6-5.7,2.3-7.1c0,0,0-0.1,0-0.1c0-0.5-0.9-1.2-1.4-1.2C128.7,107.5,128.6,107.6,128.5,107.7
			 M115.2,108.1c0,0-1.7,4.4-1.7,7.2c0,0.3,0,0.5,0.1,0.8c0.2,1.1,1,2.4,2.2,2.4c0,0,0,0,0,0c1.9,0,5.2-4.5,6.4-6.5
			c0.7,0.7,1.7,0.9,2.7,0.9c1.1,0,2.3-0.3,3.4-0.6c0.1,0,0.2-0.1,0.2-0.3c0-0.4-0.7-1.2-1.2-1.2c-0.1,0-0.1,0-0.2,0
			c-0.5,0.2-2.4,0.6-3.5,0.6c-0.3,0-0.6,0-0.7-0.1c0-0.2,0-0.3,0-0.4c0-0.5,0.1-0.6,0.4-1.3c0.1-0.8-0.8-1.5-1.3-1.5
			c-0.1,0-0.2,0-0.3,0.2c-0.1-0.1-0.4,1.4-0.4,1.5c-0.4,0.8-1,1.7-1.7,2.7c-1.1,1.5-3.2,4-4.5,4.6c-0.1-0.2-0.1-0.5-0.1-0.8
			c0-2.6,1.7-6.9,1.7-6.9c0,0,0-0.1,0-0.1c0-0.5-0.8-1.1-1.3-1.1C115.4,107.9,115.3,107.9,115.2,108.1 M110.2,106.6l2-3.1
			c0,0,0-0.1,0-0.2c0-0.5-0.9-1.2-1.4-1.2c-0.1,0-0.2,0-0.3,0.1l-2,3.1c0,0,0,0.1,0,0.2c0,0.5,0.9,1.2,1.4,1.2
			C110,106.8,110.1,106.7,110.2,106.6 M107.5,107.7c-0.7,1.6-2.3,4.9-2.3,7.3c0,0.6,0.1,1.2,0.4,1.7c0.4,0.6,1.1,1.1,1.8,1.3
			c0.2,0.1,0.4,0.1,0.6,0.1c2.7,0,6.2-4,7.6-5.7c0.1-0.1,0.1-0.1,0.1-0.2c0-0.5-0.7-1.4-1.1-1.4c-0.1,0-0.1,0-0.2,0.1
			c-1.3,1.6-5.2,5.8-7.5,5.8c0,0,0,0-0.1,0c-0.1-0.2-0.1-0.4-0.1-0.7c0-2,1.6-5.7,2.3-7.1c0,0,0-0.1,0-0.1c0-0.5-0.9-1.2-1.4-1.2
			C107.7,107.5,107.6,107.6,107.5,107.7 M80.4,127.2c0,0,3.8-1.1,8.9-2.2c0,0.1,0,0.2,0,0.4c0,0.5,0.9,1.2,1.4,1.2
			c0.2,0,0.3-0.1,0.3-0.3c0-0.1,0-0.1,0-0.2c0-0.4,0.1-0.9,0.2-1.5c4.7-0.9,10.3-1.7,15.3-1.7c2.8,0,5.5,0.3,7.7,0.9
			c0.1,0,0.2,0,0.3,0c0.2,0,0.3-0.1,0.3-0.2c0-0.4-0.5-1-1.1-1.2c-2.3-0.7-5.1-1-8.1-1c-4.5,0-9.4,0.6-13.8,1.4
			c2.5-9,11.8-30.5,11.9-30.6c0,0,0-0.1,0-0.1c0-0.5-0.9-1.2-1.4-1.2c-0.1,0-0.2,0-0.3,0.1c0,0.1-10.4,24-12.2,32.1
			c-6,1.2-10.5,2.5-10.5,2.5c-0.1,0-0.2,0.1-0.2,0.2c0,0.4,0.8,1.2,1.4,1.2C80.3,127.2,80.3,127.2,80.4,127.2"/>
	</g>
	<g>
		<defs>
			<rect id="SVGID_7_" width="329.8" height="134.8"/>
		</defs>
		<clipPath id="SVGID_8_">
			<use xlink:href="#SVGID_7_"  style="overflow:visible;"/>
		</clipPath>
		<polyline class="st5" points="258,113.4 328.8,113.4 328.8,1 1,1 1,113.4 71.9,113.4 		"/>
	</g>
</g>
<polyline class="st6" points="258,107.2 322.6,107.2 322.6,7.2 7.2,7.2 7.2,107.2 71.9,107.2 "/>
<path class="st3" d="M260.6,107.2"/>
<path class="st2" d="M255.8,113.4"/>
</svg>
